{
    "mlp_opts": {
        "numb_steps": 100000
    },
    "sampling_opts": {
        "options": {
            "dump_freq": 1000,
            "nsteps": 100000,
            "fixes": "compute         bdist all pair/local dist\ncompute         bmin all reduce min c_bdist\nvariable        bondmin equal c_bmin\nfix halt_dist all halt ${dump_freq} v_bondmin < 0.4"
        }
    },
    "confref_opts": {
        "default_fitness_params": {
            "forces_dev": {
                "target": 0.05
            },
            "forces_mag": {
                "target": 5.0
            }
        },
        "default_opt_vars_params": {
            "coordinates": {},
            "box": {}
        },
        "num_iter": 200
    },
    "al_opts": {
        "max_num_samples": 10,
        "max_num_calcs": 10,
        "bootstrap_split": 0.1,
        "test_split": 0.1,
        "error_estimation": true,
        "recalibrate_uncertainty": true,
        "num_models_confref": [
            2,
            3,
            4,
            5,
            6
        ],
        "calculator_filters": {
            "max_force": {
                "key": "forces",
                "upper": true,
                "operation": "max",
                "limit": 10.0,
                "shape": [
                    -1,
                    3
                ]
            }
        },
        "ml_filters": {
            "force_dev_max_upper": {
                "key": "forces_dev",
                "upper": true,
                "operation": "max",
                "limit": 1.0,
                "shape": [
                    -1
                ]
            }
        }
    }
}