{
    "coord": [
        [
            -0.211435586,
            7.7376144072,
            3.3461530366,
            1.3579507268,
            8.4425813953,
            2.0180904059,
            1.9903923582,
            8.0131561097,
            5.0280311309,
            1.3626854736,
            2.5101960243,
            6.4757856091,
            2.6384761101,
            1.5362857918,
            4.6159143099,
            2.803025691,
            3.8737505997,
            6.3483104995,
            0.9546046584,
            5.1779625519,
            0.8033941636,
            3.1684513507,
            6.9261014886,
            1.2616754177,
            2.6273632116,
            4.4812509881,
            0.4692801573,
            9.3978044078,
            5.0235909473,
            3.1558625367,
            0.2483623574,
            4.9437792245,
            1.8017066557,
            9.6965257917,
            6.507037462,
            3.1259251589,
            3.056920002,
            5.0551868674,
            6.116389055,
            3.6895166085,
            5.5304811156,
            7.3890886567,
            4.4160042212,
            5.5059403304,
            5.0935395202,
            3.6671176413,
            8.9323540476,
            9.2346185338,
            2.5927665678,
            9.2457341814,
            10.1129981896,
            4.6981728797,
            9.6392126666,
            9.136111219,
            7.5767079435,
            4.0074576586,
            4.6567541049,
            8.2898313728,
            3.8609932114,
            6.3081588686,
            8.5744524243,
            4.5024523535,
            3.9302299017,
            3.371427443,
            1.7194290577,
            3.3697939816,
            2.9761185198,
            3.1979859153,
            2.243851552,
            4.785273103,
            2.1299142023,
            3.9813627263,
            8.3713032216,
            3.7741328023,
            7.5397479866,
            9.2803364424,
            2.6039850329,
            7.427207498,
            9.1085368885,
            4.7730511397,
            7.8191098293,
            2.426952175,
            9.4904923121,
            4.1505847544,
            2.865493644,
            0.5972066703,
            3.4028820733,
            2.9747239767,
            9.4319973703,
            5.265850619,
            0.9343924189,
            6.3108678133,
            7.1408929274,
            1.7341621246,
            8.3681596257,
            5.8915941287,
            2.0425331204,
            5.7524330656,
            6.1748303539,
            9.240434964,
            6.7849638342,
            8.5644841695,
            0.8690470012,
            6.1490833739,
            9.9047071257,
            0.4414306885,
            7.0162752549,
            7.9944079846,
            5.9639756434,
            3.2040753984,
            9.3283508622,
            7.314409728,
            3.8156735336,
            8.1966850542,
            5.0274797917,
            4.4643989474,
            8.7771485185,
            8.7607773362,
            2.3836413528,
            2.5889492244,
            9.3538633765,
            2.7530162036,
            3.6613869699,
            9.495168756,
            2.2121242087,
            1.5611071642,
            4.8887057201,
            0.8264609457,
            9.4950250001,
            5.4689334338,
            2.0938078437,
            9.5619383942,
            5.8850709271,
            0.4870130557,
            0.7609858136,
            3.6676677568,
            5.9008639869,
            1.5943727667,
            3.204429289,
            8.7659523778,
            3.4625550631,
            3.700994362,
            8.0129368589,
            1.5044162968,
            1.6176957945,
            8.7542525034,
            0.6513574317,
            1.2440460593,
            9.9524598811,
            0.5937535151,
            1.10418113,
            8.4848841474,
            9.4442441596,
            10.0180683499,
            1.6175660557,
            7.0899668661,
            0.7507442427,
            1.9137652274,
            6.6914775344,
            9.3444554798,
            -0.1719856634,
            7.3884506143,
            6.9869418433,
            7.4302945701,
            6.5067597537,
            7.2556874925,
            7.9276360743,
            4.6315138469,
            6.7378879449,
            9.5679345381,
            6.8648655222,
            6.4884509199,
            6.7331958313,
            0.959754166,
            6.824621977,
            5.6622718612,
            0.8570287781,
            6.185675937,
            8.0266687454,
            -0.1076923095,
            7.0525000057,
            8.1023635872,
            3.4171918579,
            7.1020158136,
            7.5926839465,
            2.2732769889,
            8.5130568057,
            8.1653242821,
            3.4479476926,
            4.0732324376,
            3.8464444686,
            2.5139792063,
            5.7455686241,
            4.6245828503,
            3.5714890596,
            3.9383321934,
            5.2859119519,
            1.9153168738,
            6.5822853793,
            0.5275760311,
            1.8101652382,
            6.5790296249,
            9.0902475061,
            2.8194873034,
            7.7346269869,
            0.9785517786,
            1.7024599323,
            0.8416375125,
            1.3364195593,
            0.4155251899,
            2.0449269666,
            2.3080399047,
            0.4145319707,
            0.7010993852,
            1.9304098852,
            9.0458471201,
            6.7281346011,
            7.3325839627,
            8.8759273795,
            7.9834689028,
            7.0168225667,
            8.573215264,
            6.8646530298,
            7.3560139583,
            7.5078757271,
            6.080280857,
            0.6947037112,
            6.6803684814,
            6.186144145,
            1.371171062,
            5.4891666252,
            5.4139307188,
            1.3238482443,
            7.5180658818,
            6.5497226028,
            4.5331231858,
            1.3839953122,
            8.0111082222,
            3.3156755316,
            2.2615354476,
            6.1080145422,
            3.8949308488,
            0.354055045,
            2.9463273096,
            8.4957969378,
            6.0007441771,
            3.3402982335,
            9.0250620632,
            8.0043605172,
            4.1741232529,
            8.4664088328,
            5.7254884208,
            5.9693919052,
            1.8805006142,
            4.3525916991,
            7.2109735899,
            2.7987036755,
            4.5061144104,
            6.2897762395,
            1.3676767219,
            2.7058547521,
            4.5689033636,
            5.5492593326,
            8.2921450488,
            3.7809923319,
            6.9620546614,
            10.1743362385,
            6.2276083224,
            6.2849005689,
            8.4667767807,
            2.9004356568,
            3.23424644,
            0.3374911238,
            3.7072539728,
            3.6025537034,
            1.3730606508,
            3.6465194522,
            0.7138093077,
            -0.2019474117,
            5.5136586259,
            5.527873711,
            4.4515247124,
            6.329505823,
            7.1226802741,
            3.664047634,
            6.6982342854,
            4.9238218298,
            4.7708508797
        ]
    ],
    "atoms": [
        [
            "O",
            "H",
            "H",
            "O",
            "H",
            "H",
            "O",
            "H",
            "H",
            "O",
            "H",
            "H",
            "O",
            "H",
            "H",
            "O",
            "H",
            "H",
            "O",
            "H",
            "H",
            "O",
            "H",
            "H",
            "O",
            "H",
            "H",
            "O",
            "H",
            "H",
            "O",
            "H",
            "H",
            "O",
            "H",
            "H",
            "O",
            "H",
            "H",
            "O",
            "H",
            "H",
            "O",
            "H",
            "H",
            "O",
            "H",
            "H",
            "O",
            "H",
            "H",
            "O",
            "H",
            "H",
            "O",
            "H",
            "H",
            "O",
            "H",
            "H",
            "O",
            "H",
            "H",
            "O",
            "H",
            "H",
            "O",
            "H",
            "H",
            "O",
            "H",
            "H",
            "O",
            "H",
            "H",
            "O",
            "H",
            "H",
            "O",
            "H",
            "H",
            "O",
            "H",
            "H",
            "O",
            "H",
            "H",
            "O",
            "H",
            "H",
            "O",
            "H",
            "H",
            "O",
            "H",
            "H"
        ]
    ],
    "box": [
        [
            9.917907715,
            0.0,
            0.0,
            0.0,
            9.917907715,
            0.0,
            0.0,
            0.0,
            9.917907715
        ]
    ]
}