 DBCSR| CPU Multiplication driver                                           XSMM
 DBCSR| Multrec recursion limit                                              512
 DBCSR| Multiplication stack size                                           1000
 DBCSR| Maximum elements for images                                    UNLIMITED
 DBCSR| Multiplicative factor virtual images                                   1
 DBCSR| Use multiplication densification                                       T
 DBCSR| Multiplication size stacks                                             3
 DBCSR| Use memory pool for CPU allocation                                     F
 DBCSR| Number of 3D layers                                               SINGLE
 DBCSR| Use MPI memory allocation                                              F
 DBCSR| Use RMA algorithm                                                      F
 DBCSR| Use Communication thread                                               T
 DBCSR| Communication thread load                                             87
 DBCSR| MPI: My node id                                                        0
 DBCSR| MPI: Number of nodes                                                  64
 DBCSR| OMP: Current number of threads                                         1
 DBCSR| OMP: Max number of threads                                             1
 DBCSR| Split modifier for TAS multiplication algorithm                  1.0E+00


  **** **** ******  **  PROGRAM STARTED AT               2023-12-22 08:08:42.146
 ***** ** ***  *** **   PROGRAM STARTED ON                 b5201.betzy.sigma2.no
 **    ****   ******    PROGRAM STARTED BY                              sigbjobo
 ***** **    ** ** **   PROGRAM PROCESS ID                                 51167
  **** **  *******  **  PROGRAM STARTED IN /cluster/work/users/sigbjobo/ice_mode
                                           l/cp2k/iter_4/calculator/liquid/77817
                                           3

 CP2K| version string:                                       CP2K version 2022.1
 CP2K| source code revision number:                                  git:2caeb6f
 CP2K| cp2kflags: omp libint fftw3 libxc parallel mpi3 scalapack xsmm plumed2 li
 CP2K|            bvori libbqb
 CP2K| is freely available from                            https://www.cp2k.org/
 CP2K| Program compiled at                          Tue Oct 31 08:14:18 CET 2023
 CP2K| Program compiled on                               login-2.betzy.sigma2.no
 CP2K| Program compiled for                                    Linux-x86-64-foss
 CP2K| Data directory path         /cluster/software/CP2K/2022.1-foss-2022a/data
 CP2K| Input file name              65250b8017fba745e87c722a464efdf88116fe5c.inp

 GLOBAL| Force Environment number                                              1
 GLOBAL| Basis set file name                                           BASIS_SET
 GLOBAL| Potential file name                                      GTH_POTENTIALS
 GLOBAL| MM Potential file name                                     MM_POTENTIAL
 GLOBAL| Coordinate file name                                      __STD_INPUT__
 GLOBAL| Method name                                                        CP2K
 GLOBAL| Project name                   65250b8017fba745e87c722a464efdf88116fe5c
 GLOBAL| Run type                                                   ENERGY_FORCE
 GLOBAL| FFT library                                                       FFTW3
 GLOBAL| Diagonalization library                                       ScaLAPACK
 GLOBAL| Orthonormality check for eigenvectors                          DISABLED
 GLOBAL| Matrix multiplication library                                 ScaLAPACK
 GLOBAL| All-to-all communication in single precision                          F
 GLOBAL| FFTs using library dependent lengths                                  F
 GLOBAL| Grid backend                                                       AUTO
 GLOBAL| Global print level                                                  LOW
 GLOBAL| MPI I/O enabled                                                       T
 GLOBAL| Total number of message passing processes                            64
 GLOBAL| Number of threads for this process                                    1
 GLOBAL| This output is from process                                           0
 GLOBAL| Stack size for threads created by OpenMP (OMP_STACKSIZE)        default
 GLOBAL| CPU model name                          AMD EPYC 7742 64-Core Processor
 GLOBAL| CPUID                                                              1002

 MEMORY| system memory details [Kb]
 MEMORY|                        rank 0           min           max       average
 MEMORY| MemTotal           1056169884    1056169884    1056169884    1056169884
 MEMORY| MemFree            1024207460    1024205716    1024207460    1024207422
 MEMORY| Buffers                 26176         26176         26176         26176
 MEMORY| Cached                2970052       2970036       2970052       2970051
 MEMORY| Slab                  2048916       2048916       2048916       2048916
 MEMORY| SReclaimable           464152        464152        464152        464152
 MEMORY| MemLikelyFree      1027667840    1027666080    1027667840    1027667802


 GENERATE|  Preliminary Number of Bonds generated:                             0
 GENERATE|  Achieved consistency in connectivity generation.

 *******************************************************************************
 *******************************************************************************
 **                                                                           **
 **     #####                         ##              ##                      **
 **    ##   ##            ##          ##              ##                      **
 **   ##     ##                       ##            ######                    **
 **   ##     ##  ##   ##  ##   #####  ##  ##   ####   ##    #####    #####    **
 **   ##     ##  ##   ##  ##  ##      ## ##   ##      ##   ##   ##  ##   ##   **
 **   ##  ## ##  ##   ##  ##  ##      ####     ###    ##   ######   ######    **
 **    ##  ###   ##   ##  ##  ##      ## ##      ##   ##   ##       ##        **
 **     #######   #####   ##   #####  ##  ##  ####    ##    #####   ##        **
 **           ##                                                    ##        **
 **                                                                           **
 **                                                ... make the atoms dance   **
 **                                                                           **
 **            Copyright (C) by CP2K developers group (2000-2022)             **
 **                      J. Chem. Phys. 152, 194103 (2020)                    **
 **                                                                           **
 *******************************************************************************


 TOTAL NUMBERS AND MAXIMUM NUMBERS

  Total number of            - Atomic kinds:                                   2
                             - Atoms:                                         90
                             - Shell sets:                                   180
                             - Shells:                                       330
                             - Primitive Cartesian functions:                450
                             - Cartesian basis functions:                    720
                             - Spherical basis functions:                    690

  Maximum angular momentum of- Orbital basis functions:                        2
                             - Local part of the GTH pseudopotential:          2
                             - Non-local part of the GTH pseudopotential:      0


 SCF PARAMETERS         Density guess:                                    ATOMIC
                        --------------------------------------------------------
                        max_scf:                                               8
                        max_scf_history:                                       0
                        max_diis:                                              4
                        --------------------------------------------------------
                        eps_scf:                                        1.00E-05
                        eps_scf_history:                                0.00E+00
                        eps_diis:                                       1.00E-01
                        eps_eigval:                                     1.00E-05
                        --------------------------------------------------------
                        level_shift [a.u.]:                             0.000000
                        --------------------------------------------------------
                        Outer loop SCF in use
                        No variables optimised in outer loop
                        eps_scf                                         1.00E-06
                        max_scf                                              100
                        No outer loop optimization
                        step_size                                       5.00E-01

 Number of electrons:                                                        240
 Number of occupied orbitals:                                                120
 Number of molecular orbitals:                                               120

 Number of orbital functions:                                                690
 Number of independent orbital functions:                                    690

 Extrapolation method: initial_guess


 SCF WAVEFUNCTION OPTIMIZATION

  ----------------------------------- OT ---------------------------------------
  Minimizer      : DIIS                : direct inversion
                                         in the iterative subspace
                                         using   7 DIIS vectors
                                         safer DIIS on
  Preconditioner : FULL_SINGLE_INVERSE : inversion of
                                         H + eS - 2*(Sc)(c^T*H*c+const)(Sc)^T
  Precond_solver : DEFAULT
  stepsize       :    0.08000000                  energy_gap     :    0.08000000
  eps_taylor     :   0.10000E-15                  max_taylor     :             4
  ----------------------------------- OT ---------------------------------------

  Step     Update method      Time    Convergence         Total energy    Change
  ------------------------------------------------------------------------------
     1 OT DIIS     0.80E-01    0.8     0.04048098      -498.8887021621 -4.99E+02
     2 OT DIIS     0.80E-01    0.9     0.02841930      -506.6877652705 -7.80E+00
     3 OT DIIS     0.80E-01    0.9     0.02158491      -510.6209898692 -3.93E+00
     4 OT DIIS     0.80E-01    0.9     0.01392683      -513.9821915137 -3.36E+00
     5 OT DIIS     0.80E-01    0.9     0.00981292      -515.0181615041 -1.04E+00
     6 OT DIIS     0.80E-01    1.0     0.00596460      -515.7345234625 -7.16E-01
     7 OT DIIS     0.80E-01    0.9     0.00382946      -515.9296520534 -1.95E-01
     8 OT DIIS     0.80E-01    0.9     0.00245741      -516.0506805424 -1.21E-01

  Leaving inner SCF loop after reaching     8 steps.


  Electronic density on regular grids:       -239.9999999984        0.0000000016
  Core density on regular grids:              239.9999999999       -0.0000000001
  Total charge density on r-space grids:        0.0000000015
  Total charge density g-space grids:           0.0000000015

  Overlap energy of the core charge distribution:               0.00000036321418
  Self energy of the core charge distribution:              -1330.41464990212944
  Core Hamiltonian energy:                                    385.91931600285295
  Hartree energy:                                             554.95366806443155
  Exchange-correlation energy:                               -126.50901507077768

  Total energy:                                              -516.05068054240837

  outer SCF iter =    1 RMS gradient =   0.25E-02 energy =       -516.0506805424

  ----------------------------------- OT ---------------------------------------
  Minimizer      : DIIS                : direct inversion
                                         in the iterative subspace
                                         using   7 DIIS vectors
                                         safer DIIS on
  Preconditioner : FULL_SINGLE_INVERSE : inversion of
                                         H + eS - 2*(Sc)(c^T*H*c+const)(Sc)^T
  Precond_solver : DEFAULT
  stepsize       :    0.08000000                  energy_gap     :    0.08000000
  eps_taylor     :   0.10000E-15                  max_taylor     :             4
  ----------------------------------- OT ---------------------------------------

  Step     Update method      Time    Convergence         Total energy    Change
  ------------------------------------------------------------------------------
     1 OT DIIS     0.80E-01    1.9     0.00319932      -516.1047773233 -5.41E-02
     2 OT DIIS     0.80E-01    0.9     0.00189378      -516.1554565416 -5.07E-02
     3 OT DIIS     0.80E-01    0.9     0.00236534      -516.1715464909 -1.61E-02
     4 OT DIIS     0.80E-01    1.0     0.00097692      -516.1799513178 -8.40E-03
     5 OT DIIS     0.80E-01    0.9     0.00049990      -516.1817254441 -1.77E-03
     6 OT DIIS     0.80E-01    1.0     0.00037159      -516.1823176560 -5.92E-04
     7 OT DIIS     0.80E-01    1.0     0.00018490      -516.1826007825 -2.83E-04
     8 OT DIIS     0.80E-01    0.9     0.00011932      -516.1826814093 -8.06E-05

  Leaving inner SCF loop after reaching     8 steps.


  Electronic density on regular grids:       -239.9999999984        0.0000000016
  Core density on regular grids:              239.9999999999       -0.0000000001
  Total charge density on r-space grids:        0.0000000015
  Total charge density g-space grids:           0.0000000015

  Overlap energy of the core charge distribution:               0.00000036321418
  Self energy of the core charge distribution:              -1330.41464990212944
  Core Hamiltonian energy:                                    385.44503458485667
  Hartree energy:                                             555.27336634187441
  Exchange-correlation energy:                               -126.48643279710598

  Total energy:                                              -516.18268140929013

  outer SCF iter =    2 RMS gradient =   0.12E-03 energy =       -516.1826814093

  ----------------------------------- OT ---------------------------------------
  Minimizer      : DIIS                : direct inversion
                                         in the iterative subspace
                                         using   7 DIIS vectors
                                         safer DIIS on
  Preconditioner : FULL_SINGLE_INVERSE : inversion of
                                         H + eS - 2*(Sc)(c^T*H*c+const)(Sc)^T
  Precond_solver : DEFAULT
  stepsize       :    0.08000000                  energy_gap     :    0.08000000
  eps_taylor     :   0.10000E-15                  max_taylor     :             4
  ----------------------------------- OT ---------------------------------------

  Step     Update method      Time    Convergence         Total energy    Change
  ------------------------------------------------------------------------------
     1 OT DIIS     0.80E-01    1.9     0.00007103      -516.1827114249 -3.00E-05
     2 OT DIIS     0.80E-01    0.9     0.00014092      -516.1827034154  8.01E-06
     3 OT DIIS     0.80E-01    0.9     0.00002789      -516.1827233846 -2.00E-05
     4 OT DIIS     0.80E-01    0.9     0.00002426      -516.1827258826 -2.50E-06
     5 OT DIIS     0.80E-01    0.9     0.00001573      -516.1827291999 -3.32E-06
     6 OT DIIS     0.80E-01    0.9     0.00000679      -516.1827300091 -8.09E-07

  *** SCF run converged in     6 steps ***


  Electronic density on regular grids:       -239.9999999984        0.0000000016
  Core density on regular grids:              239.9999999999       -0.0000000001
  Total charge density on r-space grids:        0.0000000015
  Total charge density g-space grids:           0.0000000015

  Overlap energy of the core charge distribution:               0.00000036321418
  Self energy of the core charge distribution:              -1330.41464990212944
  Core Hamiltonian energy:                                    385.45492446943655
  Hartree energy:                                             555.26514998932385
  Exchange-correlation energy:                               -126.48815492898180

  Total energy:                                              -516.18273000913666

  outer SCF iter =    3 RMS gradient =   0.68E-05 energy =       -516.1827300091

  ----------------------------------- OT ---------------------------------------
  Minimizer      : DIIS                : direct inversion
                                         in the iterative subspace
                                         using   7 DIIS vectors
                                         safer DIIS on
  Preconditioner : FULL_SINGLE_INVERSE : inversion of
                                         H + eS - 2*(Sc)(c^T*H*c+const)(Sc)^T
  Precond_solver : DEFAULT
  stepsize       :    0.08000000                  energy_gap     :    0.08000000
  eps_taylor     :   0.10000E-15                  max_taylor     :             4
  ----------------------------------- OT ---------------------------------------

  Step     Update method      Time    Convergence         Total energy    Change
  ------------------------------------------------------------------------------
     1 OT DIIS     0.80E-01    1.9     0.00000507      -516.1827301456 -1.36E-07

  *** SCF run converged in     1 steps ***


  Electronic density on regular grids:       -239.9999999984        0.0000000016
  Core density on regular grids:              239.9999999999       -0.0000000001
  Total charge density on r-space grids:        0.0000000015
  Total charge density g-space grids:           0.0000000015

  Overlap energy of the core charge distribution:               0.00000036321418
  Self energy of the core charge distribution:              -1330.41464990212944
  Core Hamiltonian energy:                                    385.45611434139698
  Hartree energy:                                             555.26419631489728
  Exchange-correlation energy:                               -126.48839126295908

  Total energy:                                              -516.18273014558008

  outer SCF iter =    4 RMS gradient =   0.51E-05 energy =       -516.1827301456

  ----------------------------------- OT ---------------------------------------
  Minimizer      : DIIS                : direct inversion
                                         in the iterative subspace
                                         using   7 DIIS vectors
                                         safer DIIS on
  Preconditioner : FULL_SINGLE_INVERSE : inversion of
                                         H + eS - 2*(Sc)(c^T*H*c+const)(Sc)^T
  Precond_solver : DEFAULT
  stepsize       :    0.08000000                  energy_gap     :    0.08000000
  eps_taylor     :   0.10000E-15                  max_taylor     :             4
  ----------------------------------- OT ---------------------------------------

  Step     Update method      Time    Convergence         Total energy    Change
  ------------------------------------------------------------------------------
     1 OT DIIS     0.80E-01    2.8     0.00000902      -516.1827301409  4.66E-09

  *** SCF run converged in     1 steps ***


  Electronic density on regular grids:       -239.9999999984        0.0000000016
  Core density on regular grids:              239.9999999999       -0.0000000001
  Total charge density on r-space grids:        0.0000000015
  Total charge density g-space grids:           0.0000000015

  Overlap energy of the core charge distribution:               0.00000036321418
  Self energy of the core charge distribution:              -1330.41464990212944
  Core Hamiltonian energy:                                    385.45439726536893
  Hartree energy:                                             555.26556747985592
  Exchange-correlation energy:                               -126.48804534722653

  Total energy:                                              -516.18273014091687

  outer SCF iter =    5 RMS gradient =   0.90E-05 energy =       -516.1827301409

  ----------------------------------- OT ---------------------------------------
  Minimizer      : DIIS                : direct inversion
                                         in the iterative subspace
                                         using   7 DIIS vectors
                                         safer DIIS on
  Preconditioner : FULL_SINGLE_INVERSE : inversion of
                                         H + eS - 2*(Sc)(c^T*H*c+const)(Sc)^T
  Precond_solver : DEFAULT
  stepsize       :    0.08000000                  energy_gap     :    0.08000000
  eps_taylor     :   0.10000E-15                  max_taylor     :             4
  ----------------------------------- OT ---------------------------------------

  Step     Update method      Time    Convergence         Total energy    Change
  ------------------------------------------------------------------------------
     1 OT DIIS     0.80E-01    3.8     0.00002019      -516.1827298438  2.97E-07
     2 OT DIIS     0.80E-01    0.9     0.00004735      -516.1827280582  1.79E-06
     3 OT DIIS     0.80E-01    0.9     0.00000261      -516.1827302595 -2.20E-06

  *** SCF run converged in     3 steps ***


  Electronic density on regular grids:       -239.9999999984        0.0000000016
  Core density on regular grids:              239.9999999999       -0.0000000001
  Total charge density on r-space grids:        0.0000000015
  Total charge density g-space grids:           0.0000000015

  Overlap energy of the core charge distribution:               0.00000036321418
  Self energy of the core charge distribution:              -1330.41464990212944
  Core Hamiltonian energy:                                    385.45528100931153
  Hartree energy:                                             555.26486331844615
  Exchange-correlation energy:                               -126.48822504838203

  Total energy:                                              -516.18273025953954

  outer SCF iter =    6 RMS gradient =   0.26E-05 energy =       -516.1827302595

  ----------------------------------- OT ---------------------------------------
  Minimizer      : DIIS                : direct inversion
                                         in the iterative subspace
                                         using   7 DIIS vectors
                                         safer DIIS on
  Preconditioner : FULL_SINGLE_INVERSE : inversion of
                                         H + eS - 2*(Sc)(c^T*H*c+const)(Sc)^T
  Precond_solver : DEFAULT
  stepsize       :    0.08000000                  energy_gap     :    0.08000000
  eps_taylor     :   0.10000E-15                  max_taylor     :             4
  ----------------------------------- OT ---------------------------------------

  Step     Update method      Time    Convergence         Total energy    Change
  ------------------------------------------------------------------------------
     1 OT DIIS     0.80E-01    1.8     0.00000114      -516.1827302687 -9.13E-09

  *** SCF run converged in     1 steps ***


  Electronic density on regular grids:       -239.9999999984        0.0000000016
  Core density on regular grids:              239.9999999999       -0.0000000001
  Total charge density on r-space grids:        0.0000000015
  Total charge density g-space grids:           0.0000000015

  Overlap energy of the core charge distribution:               0.00000036321418
  Self energy of the core charge distribution:              -1330.41464990212944
  Core Hamiltonian energy:                                    385.45543802074229
  Hartree energy:                                             555.26473715900909
  Exchange-correlation energy:                               -126.48825590950243

  Total energy:                                              -516.18273026866621

  outer SCF iter =    7 RMS gradient =   0.11E-05 energy =       -516.1827302687

  ----------------------------------- OT ---------------------------------------
  Minimizer      : DIIS                : direct inversion
                                         in the iterative subspace
                                         using   7 DIIS vectors
                                         safer DIIS on
  Preconditioner : FULL_SINGLE_INVERSE : inversion of
                                         H + eS - 2*(Sc)(c^T*H*c+const)(Sc)^T
  Precond_solver : DEFAULT
  stepsize       :    0.08000000                  energy_gap     :    0.08000000
  eps_taylor     :   0.10000E-15                  max_taylor     :             4
  ----------------------------------- OT ---------------------------------------

  Step     Update method      Time    Convergence         Total energy    Change
  ------------------------------------------------------------------------------
     1 OT DIIS     0.80E-01    2.8     0.00000135      -516.1827302741 -5.45E-09

  *** SCF run converged in     1 steps ***


  Electronic density on regular grids:       -239.9999999984        0.0000000016
  Core density on regular grids:              239.9999999999       -0.0000000001
  Total charge density on r-space grids:        0.0000000015
  Total charge density g-space grids:           0.0000000015

  Overlap energy of the core charge distribution:               0.00000036321418
  Self energy of the core charge distribution:              -1330.41464990212944
  Core Hamiltonian energy:                                    385.45540603213266
  Hartree energy:                                             555.26476214140712
  Exchange-correlation energy:                               -126.48824890873811

  Total energy:                                              -516.18273027411351

  outer SCF iter =    8 RMS gradient =   0.13E-05 energy =       -516.1827302741

  ----------------------------------- OT ---------------------------------------
  Minimizer      : DIIS                : direct inversion
                                         in the iterative subspace
                                         using   7 DIIS vectors
                                         safer DIIS on
  Preconditioner : FULL_SINGLE_INVERSE : inversion of
                                         H + eS - 2*(Sc)(c^T*H*c+const)(Sc)^T
  Precond_solver : DEFAULT
  stepsize       :    0.08000000                  energy_gap     :    0.08000000
  eps_taylor     :   0.10000E-15                  max_taylor     :             4
  ----------------------------------- OT ---------------------------------------

  Step     Update method      Time    Convergence         Total energy    Change
  ------------------------------------------------------------------------------
     1 OT DIIS     0.80E-01    3.7     0.00000271      -516.1827302723  1.79E-09

  *** SCF run converged in     1 steps ***


  Electronic density on regular grids:       -239.9999999984        0.0000000016
  Core density on regular grids:              239.9999999999       -0.0000000001
  Total charge density on r-space grids:        0.0000000015
  Total charge density g-space grids:           0.0000000015

  Overlap energy of the core charge distribution:               0.00000036321418
  Self energy of the core charge distribution:              -1330.41464990212944
  Core Hamiltonian energy:                                    385.45546578045651
  Hartree energy:                                             555.26471498252124
  Exchange-correlation energy:                               -126.48826149639045

  Total energy:                                              -516.18273027232794

  outer SCF iter =    9 RMS gradient =   0.27E-05 energy =       -516.1827302723

  ----------------------------------- OT ---------------------------------------
  Minimizer      : DIIS                : direct inversion
                                         in the iterative subspace
                                         using   7 DIIS vectors
                                         safer DIIS on
  Preconditioner : FULL_SINGLE_INVERSE : inversion of
                                         H + eS - 2*(Sc)(c^T*H*c+const)(Sc)^T
  Precond_solver : DEFAULT
  stepsize       :    0.08000000                  energy_gap     :    0.08000000
  eps_taylor     :   0.10000E-15                  max_taylor     :             4
  ----------------------------------- OT ---------------------------------------

  Step     Update method      Time    Convergence         Total energy    Change
  ------------------------------------------------------------------------------
     1 OT DIIS     0.80E-01    4.6     0.00000654      -516.1827302407  3.16E-08

  *** SCF run converged in     1 steps ***


  Electronic density on regular grids:       -239.9999999984        0.0000000016
  Core density on regular grids:              239.9999999999       -0.0000000001
  Total charge density on r-space grids:        0.0000000015
  Total charge density g-space grids:           0.0000000015

  Overlap energy of the core charge distribution:               0.00000036321418
  Self energy of the core charge distribution:              -1330.41464990212944
  Core Hamiltonian energy:                                    385.45535957193181
  Hartree energy:                                             555.26479795424189
  Exchange-correlation energy:                               -126.48823822800374

  Total energy:                                              -516.18273024074529

  outer SCF iter =   10 RMS gradient =   0.65E-05 energy =       -516.1827302407

  ----------------------------------- OT ---------------------------------------
  Minimizer      : DIIS                : direct inversion
                                         in the iterative subspace
                                         using   7 DIIS vectors
                                         safer DIIS on
  Preconditioner : FULL_SINGLE_INVERSE : inversion of
                                         H + eS - 2*(Sc)(c^T*H*c+const)(Sc)^T
  Precond_solver : DEFAULT
  stepsize       :    0.08000000                  energy_gap     :    0.08000000
  eps_taylor     :   0.10000E-15                  max_taylor     :             4
  ----------------------------------- OT ---------------------------------------

  Step     Update method      Time    Convergence         Total energy    Change
  ------------------------------------------------------------------------------
     1 OT DIIS     0.80E-01    5.5     0.00001628      -516.1827300319  2.09E-07
     2 OT DIIS     0.80E-01    0.9     0.00004086      -516.1827287101  1.32E-06
     3 OT DIIS     0.80E-01    0.9     0.00000128      -516.1827302819 -1.57E-06

  *** SCF run converged in     3 steps ***


  Electronic density on regular grids:       -239.9999999984        0.0000000016
  Core density on regular grids:              239.9999999999       -0.0000000001
  Total charge density on r-space grids:        0.0000000015
  Total charge density g-space grids:           0.0000000015

  Overlap energy of the core charge distribution:               0.00000036321418
  Self energy of the core charge distribution:              -1330.41464990212944
  Core Hamiltonian energy:                                    385.45529835965317
  Hartree energy:                                             555.26484759283198
  Exchange-correlation energy:                               -126.48822669546554

  Total energy:                                              -516.18273028189560

  outer SCF iter =   11 RMS gradient =   0.13E-05 energy =       -516.1827302819

  ----------------------------------- OT ---------------------------------------
  Minimizer      : DIIS                : direct inversion
                                         in the iterative subspace
                                         using   7 DIIS vectors
                                         safer DIIS on
  Preconditioner : FULL_SINGLE_INVERSE : inversion of
                                         H + eS - 2*(Sc)(c^T*H*c+const)(Sc)^T
  Precond_solver : DEFAULT
  stepsize       :    0.08000000                  energy_gap     :    0.08000000
  eps_taylor     :   0.10000E-15                  max_taylor     :             4
  ----------------------------------- OT ---------------------------------------

  Step     Update method      Time    Convergence         Total energy    Change
  ------------------------------------------------------------------------------
     1 OT DIIS     0.80E-01    1.8     0.00000027      -516.1827302837 -1.77E-09

  *** SCF run converged in     1 steps ***


  Electronic density on regular grids:       -239.9999999984        0.0000000016
  Core density on regular grids:              239.9999999999       -0.0000000001
  Total charge density on r-space grids:        0.0000000015
  Total charge density g-space grids:           0.0000000015

  Overlap energy of the core charge distribution:               0.00000036321418
  Self energy of the core charge distribution:              -1330.41464990212944
  Core Hamiltonian energy:                                    385.45542525804063
  Hartree energy:                                             555.26474644458142
  Exchange-correlation energy:                               -126.48825244737415

  Total energy:                                              -516.18273028366741

  outer SCF iter =   12 RMS gradient =   0.27E-06 energy =       -516.1827302837
  outer SCF loop converged in  12 iterations or   35 steps


 ENERGY| Total FORCE_EVAL ( QS ) energy [a.u.]:             -516.182730283986757

 ATOMIC FORCES in [a.u.]

 # Atom   Kind   Element          X              Y              Z
      1      1      O          -0.00765066     0.01515794    -0.00167209
      2      2      H          -0.00545166     0.00693908    -0.00083563
      3      2      H          -0.01264854     0.00553171     0.00487285
      4      1      O           0.01594628    -0.00671487    -0.03416299
      5      2      H           0.03227795     0.00914721     0.01083272
      6      2      H           0.01212323    -0.00037983    -0.00538468
      7      1      O           0.00971501    -0.00965851    -0.01506034
      8      2      H          -0.01853106     0.01826600     0.00260297
      9      2      H          -0.00601310    -0.02622374     0.02489472
     10      1      O           0.01515872     0.00535830    -0.00030157
     11      2      H           0.00532934     0.00266299    -0.00935653
     12      2      H          -0.00966708    -0.00187226    -0.00130953
     13      1      O          -0.00114070    -0.00249827     0.00001904
     14      2      H          -0.01532193    -0.01134366     0.00015570
     15      2      H          -0.00172432    -0.00952074    -0.00178864
     16      1      O           0.01288019     0.00825461     0.03841365
     17      2      H           0.03159220     0.00510498     0.02483271
     18      2      H          -0.00393597    -0.00392506     0.00510118
     19      1      O           0.00001546     0.00161513    -0.00663929
     20      2      H           0.00156293     0.00332574     0.00958128
     21      2      H           0.01061915    -0.00296519     0.00221982
     22      1      O           0.01737995    -0.01465260    -0.03080822
     23      2      H          -0.00346552    -0.00393259    -0.00370421
     24      2      H          -0.01145910     0.00112843    -0.01536772
     25      1      O          -0.00814085     0.02041632    -0.00298283
     26      2      H           0.00994686     0.01163957     0.00598112
     27      2      H           0.00378026     0.00711552    -0.00807208
     28      1      O           0.00999176     0.00188841     0.00317625
     29      2      H           0.00486764     0.01482873     0.00684878
     30      2      H          -0.01004693     0.01480605    -0.02660892
     31      1      O          -0.00459405     0.04006823     0.01118204
     32      2      H          -0.01419137    -0.03268183    -0.00279896
     33      2      H           0.03212517    -0.01406948    -0.00739031
     34      1      O           0.01053921     0.01636232    -0.02258342
     35      2      H          -0.00106438    -0.00166733     0.00015401
     36      2      H          -0.01412365    -0.02790034     0.04188867
     37      1      O          -0.03562790     0.00030501    -0.02717807
     38      2      H           0.00051322    -0.00215102    -0.00516091
     39      2      H          -0.00259066    -0.01352590    -0.02734672
     40      1      O          -0.00342365    -0.00206417    -0.00123527
     41      2      H          -0.00330109    -0.00361389     0.00203830
     42      2      H           0.00122269    -0.00210585    -0.00485826
     43      1      O           0.00357516     0.00616389     0.00635008
     44      2      H           0.00305305    -0.01734804     0.00628007
     45      2      H          -0.00154856    -0.00201468    -0.00605198
     46      1      O          -0.01824608    -0.06375032    -0.04163213
     47      2      H           0.01196249     0.00296734     0.03947978
     48      2      H           0.00500356     0.00776016     0.01248167
     49      1      O          -0.01402385     0.00759997     0.00586223
     50      2      H           0.00577176     0.00142028    -0.00305383
     51      2      H           0.01886275    -0.02376523    -0.00984938
     52      1      O          -0.00327316    -0.00468097     0.02044364
     53      2      H          -0.01307165     0.00586453     0.02262007
     54      2      H          -0.00136316     0.00174684    -0.00199900
     55      1      O           0.00643881    -0.01101399    -0.00125728
     56      2      H           0.00751609     0.00480575    -0.00074273
     57      2      H          -0.00527190    -0.00210105     0.00502564
     58      1      O           0.01139567     0.02776678     0.00132636
     59      2      H          -0.03037224    -0.03380295     0.00330830
     60      2      H           0.02039743     0.00890197     0.00637588
     61      1      O           0.00191485     0.01008843     0.00768926
     62      2      H           0.00991423     0.00934423    -0.00183753
     63      2      H           0.00236216     0.00244247     0.00183102
     64      1      O           0.09516623    -0.01249954    -0.02711760
     65      2      H          -0.08382549     0.00167796     0.04284148
     66      2      H          -0.00179436    -0.01157925     0.00538516
     67      1      O           0.00005478    -0.01891708    -0.01499509
     68      2      H          -0.00916918    -0.00158050     0.01401802
     69      2      H           0.00364015     0.00180293     0.00341903
     70      1      O           0.01894502    -0.00361170    -0.01539033
     71      2      H          -0.01792878     0.00812290     0.01363872
     72      2      H          -0.01206535    -0.00339324     0.00716721
     73      1      O           0.00306165     0.00316045     0.00666184
     74      2      H          -0.00605108     0.01607660     0.00214726
     75      2      H          -0.01176369    -0.00876685    -0.00440468
     76      1      O          -0.00152211     0.00476591    -0.00461398
     77      2      H          -0.00249022    -0.00089895     0.00298091
     78      2      H          -0.01586908     0.01403363     0.00694710
     79      1      O           0.00502615     0.00043862     0.00633862
     80      2      H          -0.00278883     0.00170340    -0.00389627
     81      2      H          -0.00015508    -0.00732908    -0.00486674
     82      1      O           0.01388961     0.00630650    -0.01967102
     83      2      H          -0.00759933     0.02037300     0.00276547
     84      2      H          -0.01980516     0.01843814     0.00729549
     85      1      O          -0.03215724    -0.03605461    -0.02573885
     86      2      H          -0.02831996    -0.01357526     0.00565289
     87      2      H           0.05748862     0.03574698     0.00572016
     88      1      O           0.00300188     0.00259403     0.00101491
     89      2      H           0.00252470     0.01002638    -0.00762879
     90      2      H          -0.01389328     0.01810802    -0.01056358
 SUM OF ATOMIC FORCES           0.00007101     0.00001995    -0.00005389     0.00009134

 -------------------------------------------------------------------------------
 -                                                                             -
 -                                DBCSR STATISTICS                             -
 -                                                                             -
 -------------------------------------------------------------------------------
 COUNTER                                    TOTAL       BLAS       SMM       ACC
 flops    24 x    24 x    24              5087232       0.0%    100.0%      0.0%
 flops     5 x    24 x    24              8294400       0.0%    100.0%      0.0%
 flops    13 x    24 x    24             10782720       0.0%    100.0%      0.0%
 flops     5 x    32 x    24             16588800       0.0%    100.0%      0.0%
 flops     5 x    24 x    32             16588800       0.0%    100.0%      0.0%
 flops    24 x    24 x    32             20348928       0.0%    100.0%      0.0%
 flops    24 x    32 x    24             20348928       0.0%    100.0%      0.0%
 flops    32 x    24 x    24             20348928       0.0%    100.0%      0.0%
 flops    13 x    32 x    24             21565440       0.0%    100.0%      0.0%
 flops    13 x    24 x    32             21565440       0.0%    100.0%      0.0%
 flops    24 x    24 x    84             27095040       0.0%    100.0%      0.0%
 flops    84 x    24 x    24             29223936       0.0%    100.0%      0.0%
 flops    84 x    24 x    84             63673344       0.0%    100.0%      0.0%
 flops    32 x    32 x    24             81395712       0.0%    100.0%      0.0%
 flops    24 x    32 x    32             81395712       0.0%    100.0%      0.0%
 flops    32 x    24 x    32             81395712       0.0%    100.0%      0.0%
 flops    24 x    24 x    87             84188160       0.0%    100.0%      0.0%
 flops     5 x    32 x    32             88473600       0.0%    100.0%      0.0%
 flops    87 x    24 x    24             90802944       0.0%    100.0%      0.0%
 flops    32 x    24 x    84            102187008       0.0%    100.0%      0.0%
 flops    24 x    32 x    84            105283584       0.0%    100.0%      0.0%
 flops     5 x     5 x    24            107604000       0.0%    100.0%      0.0%
 flops    13 x    32 x    32            115015680       0.0%    100.0%      0.0%
 flops    84 x    24 x    32            116895744       0.0%    100.0%      0.0%
 flops    84 x    32 x    24            116895744       0.0%    100.0%      0.0%
 flops    13 x     5 x    24            137592000       0.0%    100.0%      0.0%
 flops     5 x    13 x    24            137592000       0.0%    100.0%      0.0%
 flops    13 x    13 x    24            184831920       0.0%    100.0%      0.0%
 flops    87 x    24 x    84            197842176       0.0%    100.0%      0.0%
 flops    84 x    24 x    87            197842176       0.0%    100.0%      0.0%
 flops    84 x    32 x    84            254693376       0.0%    100.0%      0.0%
 flops    32 x    24 x    87            317509632       0.0%    100.0%      0.0%
 flops    32 x    32 x    32            325582848       0.0%    100.0%      0.0%
 flops    24 x    32 x    87            327131136       0.0%    100.0%      0.0%
 flops    87 x    32 x    24            363211776       0.0%    100.0%      0.0%
 flops    87 x    24 x    32            363211776       0.0%    100.0%      0.0%
 flops    32 x    32 x    84            421134336       0.0%    100.0%      0.0%
 flops     5 x     5 x    32            430416000       0.0%    100.0%      0.0%
 flops    84 x    32 x    32            467582976       0.0%    100.0%      0.0%
 flops     5 x    24 x     5            522720000       0.0%    100.0%      0.0%
 flops    13 x     5 x    32            550368000       0.0%    100.0%      0.0%
 flops     5 x    13 x    32            550368000       0.0%    100.0%      0.0%
 flops    87 x    24 x    87            614723904       0.0%    100.0%      0.0%
 flops    13 x    24 x     5            679536000       0.0%    100.0%      0.0%
 flops     5 x    24 x    13            679536000       0.0%    100.0%      0.0%
 flops    13 x    13 x    32            739327680       0.0%    100.0%      0.0%
 flops    87 x    32 x    84            791368704       0.0%    100.0%      0.0%
 flops    84 x    32 x    87            791368704       0.0%    100.0%      0.0%
 flops    13 x    24 x    13            883396800       0.0%    100.0%      0.0%
 flops    32 x    32 x    87           1308524544       0.0%    100.0%      0.0%
 flops    87 x    32 x    32           1452847104       0.0%    100.0%      0.0%
 flops     5 x    32 x     5           2090880000       0.0%    100.0%      0.0%
 flops    87 x    32 x    87           2458895616       0.0%    100.0%      0.0%
 flops    13 x    32 x     5           2718144000       0.0%    100.0%      0.0%
 flops     5 x    32 x    13           2718144000       0.0%    100.0%      0.0%
 flops    13 x    32 x    13           3533587200       0.0%    100.0%      0.0%
 flops inhomo. stacks                           0       0.0%      0.0%      0.0%
 flops total                        28.662956E+09       0.0%    100.0%      0.0%
 flops max/rank                      1.049057E+09       0.0%    100.0%      0.0%
 matmuls inhomo. stacks                         0       0.0%      0.0%      0.0%
 matmuls total                            4805100       0.0%    100.0%      0.0%
 number of processed stacks                238400       0.0%    100.0%      0.0%
 average stack size                                     0.0      20.2       0.0
 marketing flops                    31.929276E+09
 -------------------------------------------------------------------------------
 # multiplications                            728
 max memory usage/rank             311.382016E+06
 # max total images/rank                        1
 # max 3D layers                                1
 # MPI messages exchanged                  652288
 MPI messages size (bytes):
  total size                         8.252931E+09
  min size                           0.000000E+00
  max size                          60.552000E+03
  average size                      12.652281E+03
 MPI breakdown and total messages size (bytes):
             size <=      128              355712                        0
       128 < size <=     8192               59808                430649856
      8192 < size <=    32768              161504               3343132800
     32768 < size <=   131072               75264               4479148800
    131072 < size <=  4194304                   0                        0
   4194304 < size <= 16777216                   0                        0
  16777216 < size                               0                        0
 -------------------------------------------------------------------------------
 -                                                                             -
 -                      DBCSR MESSAGE PASSING PERFORMANCE                      -
 -                                                                             -
 -------------------------------------------------------------------------------
 ROUTINE             CALLS      AVE VOLUME [Bytes]
 MP_Bcast               57                     12.
 MP_Allreduce         3822                     10.
 MP_Alltoall          3317                  10852.
 MP_ISend            23248                   7863.
 MP_IRecv            23248                   7409.
 -------------------------------------------------------------------------------

 -------------------------------------------------------------------------------
 -                                                                             -
 -                                DBM STATISTICS                               -
 -                                                                             -
 -------------------------------------------------------------------------------
    M  x    N  x    K                                          COUNT     PERCENT
 -------------------------------------------------------------------------------

 -------------------------------------------------------------------------------
 -                                                                             -
 -                                GRID STATISTICS                              -
 -                                                                             -
 -------------------------------------------------------------------------------
 LP    KERNEL             BACKEND                              COUNT     PERCENT
 1     collocate general  REF                                 945504      21.04%
 1     integrate general  REF                                 919240      20.46%
 0     collocate general  REF                                 692352      15.41%
 0     integrate general  REF                                 667520      14.86%
 2     collocate general  REF                                 489996      10.91%
 2     integrate general  REF                                 476385      10.60%
 3     integrate general  REF                                 131967       2.94%
 3     collocate general  REF                                 110196       2.45%
 4     integrate general  REF                                  34594       0.77%
 5     integrate general  REF                                  13611       0.30%
 4     collocate general  REF                                   8568       0.19%
 6     integrate general  REF                                   3061       0.07%
 7     integrate general  REF                                    238       0.01%
 -------------------------------------------------------------------------------

 MEMORY| Estimated peak process memory [MiB]                                 297

 -------------------------------------------------------------------------------
 -                                                                             -
 -                         MESSAGE PASSING PERFORMANCE                         -
 -                                                                             -
 -------------------------------------------------------------------------------

 ROUTINE             CALLS      AVE VOLUME [Bytes]
 MP_Group                4
 MP_Bcast             2371                 247500.
 MP_Allreduce         6945                    446.
 MP_Sync                34
 MP_Alltoall           773                5129252.
 MP_ISendRecv         9072                  46872.
 MP_Wait             12868
 MP_comm_split          15
 MP_ISend             3212                 295384.
 MP_IRecv             3212                 295384.
 MP_Recv                14                  82800.
 -------------------------------------------------------------------------------


 -------------------------------------------------------------------------------
 -                                                                             -
 -                           R E F E R E N C E S                               -
 -                                                                             -
 -------------------------------------------------------------------------------

 CP2K version 2022.1, the CP2K developers group (2022).
 CP2K is freely available from https://www.cp2k.org/ .

 Kuehne,Thomas D.; Iannuzzi,Marcella; Del Ben,Mauro;
 Rybkin,Vladimir V.; Seewald,Patrick; Stein,Frederick; Laino,Teodoro;
 Khaliullin,Rustam Z.; Schuett,Ole; Schiffmann,Florian; Golze,Dorothea;
 Wilhelm,Jan; Chulkov,Sergey; Bani-Hashemian,Mohammad Hossein;
 Weber,Valery; Borstnik,Urban; Taillefumier,Mathieu;
 Jakobovits,Alice Shoshana; Lazzaro,Alfio; Pabst,Hans; Mueller,Tiziano;
 Schade,Robert; Guidon,Manuel; Andermatt,Samuel; Holmberg,Nico;
 Schenter,Gregory K.; Hehn,Anna; Bussy,Augustin; Belleflamme,Fabian;
 Tabacchi,Gloria; Gloess,Andreas; Lass,Michael; Bethune,Iain;
 Mundy,Christopher J.; Plessl,Christian; Watkins,Matt;
 VandeVondele,Joost; Krack,Matthias; Hutter,Juerg.
 The Journal of Chemical Physics, 152 (19), (2020).
 CP2K: An electronic structure and molecular dynamics software package -
 Quickstep: Efficient and accurate electronic structure calculations.
 https://doi.org/10.1063/5.0007045

 Schuett, Ole; Messmer, Peter; Hutter, Juerg; VandeVondele, Joost.
 Electronic Structure Calculations on Graphics Processing Units, John
 Wiley & Sons, Ltd, 173-190 (2016).
 GPU-Accelerated Sparse Matrix-Matrix Multiplication for
 Linear Scaling Density Functional Theory.
 https://doi.org/10.1002/9781118670712.ch8

 Heinecke, A; Henry, G; Hutchinson, M; Pabst, H.
 Proceedings of Intl. Supercomputing Conference, 981-991 (2016).
 LIBXSMM: Accelerating Small Matrix Multiplications
 by Runtime Code Generation.
 https://doi.org/10.1109/SC.2016.83

 Borstnik, U; VandeVondele, J; Weber, V; Hutter, J.
 PARALLEL COMPUTING, 40 (5-6), 47-58 (2014).
 Sparse matrix multiplication: The distributed block-compressed sparse
 row library.
 https://doi.org/10.1016/j.parco.2014.03.012

 Hutter, J; Iannuzzi, M; Schiffmann, F; VandeVondele, J.
 WIREs Comput Mol Sci., 4 (1), 15-25 (2014).
 CP2K: atomistic simulations of condensed matter systems.
 https://doi.org/10.1002/wcms.1159

 Krack, M.
 THEORETICAL CHEMISTRY ACCOUNTS, 114 (1-3), 145-152 (2005).
 Pseudopotentials for H to Kr optimized for gradient-corrected
 exchange-correlation functionals.
 https://doi.org/10.1007/s00214-005-0655-y

 VandeVondele, J; Krack, M; Mohamed, F; Parrinello, M; Chassaing, T;
 Hutter, J. COMPUTER PHYSICS COMMUNICATIONS, 167 (2), 103-128 (2005).
 QUICKSTEP: Fast and accurate density functional calculations using a
 mixed Gaussian and plane waves approach.
 https://doi.org/10.1016/j.cpc.2004.12.014

 Frigo, M; Johnson, SG.
 PROCEEDINGS OF THE IEEE, 93 (2), 216-231 (2005).
 The design and implementation of FFTW3.
 https://doi.org/10.1109/JPROC.2004.840301

 VandeVondele, J; Hutter, J.
 JOURNAL OF CHEMICAL PHYSICS, 118 (10), 4365-4369 (2003).
 An efficient orbital transformation method for electronic structure
 calculations.
 https://doi.org/10.1063/1.1543154

 Hartwigsen, C; Goedecker, S; Hutter, J.
 PHYSICAL REVIEW B, 58 (7), 3641-3662 (1998).
 Relativistic separable dual-space Gaussian pseudopotentials from H to Rn.
 https://doi.org/10.1103/PhysRevB.58.3641

 Lippert, G; Hutter, J; Parrinello, M.
 MOLECULAR PHYSICS, 92 (3), 477-487 (1997).
 A hybrid Gaussian and plane wave density functional scheme.
 https://doi.org/10.1080/002689797170220

 Perdew, JP; Burke, K; Ernzerhof, M.
 PHYSICAL REVIEW LETTERS, 77 (18), 3865-3868 (1996).
 Generalized gradient approximation made simple.
 https://doi.org/10.1103/PhysRevLett.77.3865

 Goedecker, S; Teter, M; Hutter, J.
 PHYSICAL REVIEW B, 54 (3), 1703-1710 (1996).
 Separable dual-space Gaussian pseudopotentials.
 https://doi.org/10.1103/PhysRevB.54.1703


 -------------------------------------------------------------------------------
 -                                                                             -
 -                                T I M I N G                                  -
 -                                                                             -
 -------------------------------------------------------------------------------
 SUBROUTINE                       CALLS  ASD         SELF TIME        TOTAL TIME
                                MAXIMUM       AVERAGE  MAXIMUM  AVERAGE  MAXIMUM
 CP2K                                 1  1.0    0.021    0.025   33.873   33.874
 qs_forces                            1  2.0    0.001    0.001   33.717   33.718
 qs_energies                          1  3.0    0.001    0.001   32.758   32.758
 scf_env_do_scf                       1  4.0    0.001    0.002   32.430   32.431
 rebuild_ks_matrix                   36  6.9    0.000    0.001   24.508   24.511
 qs_ks_build_kohn_sham_matrix        36  7.9    0.008    0.010   24.507   24.511
 scf_env_do_scf_inner_loop           35  5.0    0.002    0.003   24.043   24.045
 qs_ks_update_qs_env                 47  6.0    0.001    0.001   23.563   23.567
 pw_transfer                        685 11.1    0.051    0.065   16.122   16.482
 fft_wrap_pw1pw2                    613 12.2    0.009    0.010   15.899   16.254
 qs_vxc_create                       36  8.9    0.001    0.002   15.690   15.816
 xc_vxc_pw_create                    36  9.9    0.071    0.081   15.688   15.815
 fft_wrap_pw1pw2_600                397 13.6    1.181    1.290   15.279   15.532
 fft3d_ps                           613 14.2    4.781    5.614   13.125   13.662
 xc_pw_derive                       216 11.9    0.003    0.003   11.372   11.807
 xc_pw_divergence                    36 10.9    0.001    0.002    8.536    8.956
 mp_alltoall_z22v                   613 16.2    7.339    8.568    7.339    8.568
 init_scf_loop                       12  5.0    0.001    0.001    8.384    8.385
 xc_rho_set_and_dset_create          36 10.9    0.091    0.119    6.837    8.092
 qs_rho_update_rho_low               36  6.0    0.000    0.000    8.081    8.082
 calculate_rho_elec                  36  7.0    0.022    0.028    8.080    8.082
 sum_up_and_integrate                36  8.9    0.048    0.055    6.802    6.894
 integrate_v_rspace                  36  9.9    0.001    0.002    6.753    6.847
 yz_to_x                            253 15.1    0.424    0.621    5.577    6.353
 rs_pw_transfer                     290 10.4    0.005    0.006    5.759    6.015
 density_rs2pw                       36  8.0    0.002    0.003    5.442    5.703
 potential_pw2rs                     36 10.9    0.003    0.003    4.074    4.080
 x_to_yz                            288 15.6    0.523    0.669    2.704    3.738
 xc_functional_eval                  36 11.9    0.000    0.001    2.460    2.981
 pbe_lda_eval                        36 12.9    2.460    2.980    2.460    2.980
 mp_waitany                        3212 12.4    2.320    2.901    2.320    2.901
 grid_collocate_task_list            36  8.0    2.473    2.888    2.473    2.888
 grid_integrate_task_list            36 10.9    2.445    2.640    2.445    2.640
 rs_pw_transfer_RS2PW_600            37  9.9    0.599    0.774    1.991    2.430
 rs_pw_transfer_PW2RS_600            37 12.8    1.018    1.079    1.642    1.694
 rs_pw_transfer_RS2PW_200            36 10.0    0.416    0.445    0.832    1.416
 mp_alltoall_d11v                   940 12.2    0.290    1.411    0.290    1.411
 rs_scatter_matrices                 37  8.0    0.001    0.002    0.053    1.161
 pw_gather_p                        289 13.8    0.778    1.038    0.778    1.038
 qs_ks_update_qs_env_forces           1  3.0    0.000    0.000    0.949    0.949
 pw_derive                          219 12.8    0.796    0.935    0.796    0.935
 dbcsr_multiply_generic             728 10.7    0.017    0.018    0.711    0.855
 rs_pw_transfer_PW2RS_200            36 12.9    0.414    0.443    0.766    0.846
 pw_scatter_p                       324 14.6    0.770    0.835    0.770    0.835
 pw_copy                            435 11.7    0.743    0.799    0.743    0.799
 mp_waitall_1                     67896 14.5    0.548    0.700    0.548    0.700
 pw_poisson_solve                    36  8.9    0.257    0.269    0.695    0.695
 -------------------------------------------------------------------------------

 The number of warnings for this run is : 0

 -------------------------------------------------------------------------------
  **** **** ******  **  PROGRAM ENDED AT                 2023-12-22 08:09:21.294
 ***** ** ***  *** **   PROGRAM RAN ON                     b5201.betzy.sigma2.no
 **    ****   ******    PROGRAM RAN BY                                  sigbjobo
 ***** **    ** ** **   PROGRAM PROCESS ID                                 51167
  **** **  *******  **  PROGRAM STOPPED IN /cluster/work/users/sigbjobo/ice_mode
                                           l/cp2k/iter_4/calculator/liquid/77817
                                           3
