 DBCSR| CPU Multiplication driver                                           XSMM
 DBCSR| Multrec recursion limit                                              512
 DBCSR| Multiplication stack size                                           1000
 DBCSR| Maximum elements for images                                    UNLIMITED
 DBCSR| Multiplicative factor virtual images                                   1
 DBCSR| Use multiplication densification                                       T
 DBCSR| Multiplication size stacks                                             3
 DBCSR| Use memory pool for CPU allocation                                     F
 DBCSR| Number of 3D layers                                               SINGLE
 DBCSR| Use MPI memory allocation                                              F
 DBCSR| Use RMA algorithm                                                      F
 DBCSR| Use Communication thread                                               T
 DBCSR| Communication thread load                                             87
 DBCSR| MPI: My node id                                                        0
 DBCSR| MPI: Number of nodes                                                  64
 DBCSR| OMP: Current number of threads                                         1
 DBCSR| OMP: Max number of threads                                             1
 DBCSR| Split modifier for TAS multiplication algorithm                  1.0E+00


  **** **** ******  **  PROGRAM STARTED AT               2023-12-06 09:49:48.739
 ***** ** ***  *** **   PROGRAM STARTED ON                 b5201.betzy.sigma2.no
 **    ****   ******    PROGRAM STARTED BY                              sigbjobo
 ***** **    ** ** **   PROGRAM PROCESS ID                                108315
  **** **  *******  **  PROGRAM STARTED IN /cluster/work/users/sigbjobo/ice_mode
                                           l/cp2k/iter_1/calculator/ice_ih/77079
                                           9

 CP2K| version string:                                       CP2K version 2022.1
 CP2K| source code revision number:                                  git:2caeb6f
 CP2K| cp2kflags: omp libint fftw3 libxc parallel mpi3 scalapack xsmm plumed2 li
 CP2K|            bvori libbqb
 CP2K| is freely available from                            https://www.cp2k.org/
 CP2K| Program compiled at                          Tue Oct 31 08:14:18 CET 2023
 CP2K| Program compiled on                               login-2.betzy.sigma2.no
 CP2K| Program compiled for                                    Linux-x86-64-foss
 CP2K| Data directory path         /cluster/software/CP2K/2022.1-foss-2022a/data
 CP2K| Input file name              1b1b16395847bfc4ba9ec227e7d6ae02d8581d51.inp

 GLOBAL| Force Environment number                                              1
 GLOBAL| Basis set file name                                           BASIS_SET
 GLOBAL| Potential file name                                      GTH_POTENTIALS
 GLOBAL| MM Potential file name                                     MM_POTENTIAL
 GLOBAL| Coordinate file name                                      __STD_INPUT__
 GLOBAL| Method name                                                        CP2K
 GLOBAL| Project name                   1b1b16395847bfc4ba9ec227e7d6ae02d8581d51
 GLOBAL| Run type                                                   ENERGY_FORCE
 GLOBAL| FFT library                                                       FFTW3
 GLOBAL| Diagonalization library                                       ScaLAPACK
 GLOBAL| Orthonormality check for eigenvectors                          DISABLED
 GLOBAL| Matrix multiplication library                                 ScaLAPACK
 GLOBAL| All-to-all communication in single precision                          F
 GLOBAL| FFTs using library dependent lengths                                  F
 GLOBAL| Grid backend                                                       AUTO
 GLOBAL| Global print level                                                  LOW
 GLOBAL| MPI I/O enabled                                                       T
 GLOBAL| Total number of message passing processes                            64
 GLOBAL| Number of threads for this process                                    1
 GLOBAL| This output is from process                                           0
 GLOBAL| Stack size for threads created by OpenMP (OMP_STACKSIZE)        default
 GLOBAL| CPU model name                          AMD EPYC 7742 64-Core Processor
 GLOBAL| CPUID                                                              1002

 MEMORY| system memory details [Kb]
 MEMORY|                        rank 0           min           max       average
 MEMORY| MemTotal           1056169888    1056169888    1056169888    1056169888
 MEMORY| MemFree            1038631012    1038631012    1038631012    1038631012
 MEMORY| Buffers                 32600         32600         32600         32600
 MEMORY| Cached                1991516       1991516       1991516       1991516
 MEMORY| Slab                  1390996       1390996       1390996       1390996
 MEMORY| SReclaimable           360188        360188        360188        360188
 MEMORY| MemLikelyFree      1041015316    1041015316    1041015316    1041015316


 GENERATE|  Preliminary Number of Bonds generated:                             0
 GENERATE|  Achieved consistency in connectivity generation.

 *******************************************************************************
 *******************************************************************************
 **                                                                           **
 **     #####                         ##              ##                      **
 **    ##   ##            ##          ##              ##                      **
 **   ##     ##                       ##            ######                    **
 **   ##     ##  ##   ##  ##   #####  ##  ##   ####   ##    #####    #####    **
 **   ##     ##  ##   ##  ##  ##      ## ##   ##      ##   ##   ##  ##   ##   **
 **   ##  ## ##  ##   ##  ##  ##      ####     ###    ##   ######   ######    **
 **    ##  ###   ##   ##  ##  ##      ## ##      ##   ##   ##       ##        **
 **     #######   #####   ##   #####  ##  ##  ####    ##    #####   ##        **
 **           ##                                                    ##        **
 **                                                                           **
 **                                                ... make the atoms dance   **
 **                                                                           **
 **            Copyright (C) by CP2K developers group (2000-2022)             **
 **                      J. Chem. Phys. 152, 194103 (2020)                    **
 **                                                                           **
 *******************************************************************************


 TOTAL NUMBERS AND MAXIMUM NUMBERS

  Total number of            - Atomic kinds:                                   2
                             - Atoms:                                         48
                             - Shell sets:                                    96
                             - Shells:                                       176
                             - Primitive Cartesian functions:                240
                             - Cartesian basis functions:                    384
                             - Spherical basis functions:                    368

  Maximum angular momentum of- Orbital basis functions:                        2
                             - Local part of the GTH pseudopotential:          2
                             - Non-local part of the GTH pseudopotential:      0


 SCF PARAMETERS         Density guess:                                    ATOMIC
                        --------------------------------------------------------
                        max_scf:                                              20
                        max_scf_history:                                       0
                        max_diis:                                              4
                        --------------------------------------------------------
                        eps_scf:                                        1.00E-05
                        eps_scf_history:                                0.00E+00
                        eps_diis:                                       1.00E-01
                        eps_eigval:                                     1.00E-05
                        --------------------------------------------------------
                        level_shift [a.u.]:                             0.000000
                        --------------------------------------------------------
                        Outer loop SCF in use
                        No variables optimised in outer loop
                        eps_scf                                         1.00E-05
                        max_scf                                              100
                        No outer loop optimization
                        step_size                                       5.00E-01

 Number of electrons:                                                        128
 Number of occupied orbitals:                                                 64
 Number of molecular orbitals:                                                64

 Number of orbital functions:                                                368
 Number of independent orbital functions:                                    368

 Extrapolation method: initial_guess


 SCF WAVEFUNCTION OPTIMIZATION

  ----------------------------------- OT ---------------------------------------
  Minimizer      : DIIS                : direct inversion
                                         in the iterative subspace
                                         using   7 DIIS vectors
                                         safer DIIS on
  Preconditioner : FULL_SINGLE_INVERSE : inversion of
                                         H + eS - 2*(Sc)(c^T*H*c+const)(Sc)^T
  Precond_solver : DEFAULT
  stepsize       :    0.08000000                  energy_gap     :    0.08000000
  eps_taylor     :   0.10000E-15                  max_taylor     :             4
  ----------------------------------- OT ---------------------------------------

  Step     Update method      Time    Convergence         Total energy    Change
  ------------------------------------------------------------------------------
     1 OT DIIS     0.80E-01    0.2     0.06115728      -264.2002981485 -2.64E+02
     2 OT DIIS     0.80E-01    0.3     0.04433984      -268.7662901092 -4.57E+00
     3 OT DIIS     0.80E-01    0.3     0.03337633      -271.0426658121 -2.28E+00
     4 OT DIIS     0.80E-01    0.3     0.02048340      -273.5343945426 -2.49E+00
     5 OT DIIS     0.80E-01    0.3     0.01279302      -274.2122191621 -6.78E-01
     6 OT DIIS     0.80E-01    0.3     0.00866257      -274.5346383129 -3.22E-01
     7 OT DIIS     0.80E-01    0.3     0.00732433      -274.6724259908 -1.38E-01
     8 OT SD       0.80E-01    0.3     0.00800342      -274.7770326303 -1.05E-01
     9 OT SD       0.80E-01    0.3     0.00905430      -274.9049459400 -1.28E-01
    10 OT SD       0.80E-01    0.3     0.00880200      -275.0589756721 -1.54E-01
    11 OT SD       0.80E-01    0.3     0.00701687      -275.1905379675 -1.32E-01
    12 OT DIIS     0.80E-01    0.3     0.00527628      -275.2711014429 -8.06E-02
    13 OT SD       0.80E-01    0.3     0.00828565      -275.2630845907  8.02E-03
    14 OT DIIS     0.80E-01    0.3     0.00456895      -275.3409435245 -7.79E-02
    15 OT DIIS     0.80E-01    0.3     0.00708048      -275.3408559423  8.76E-05
    16 OT DIIS     0.80E-01    0.3     0.00381828      -275.4002917337 -5.94E-02
    17 OT DIIS     0.80E-01    0.3     0.00132072      -275.4297092498 -2.94E-02
    18 OT DIIS     0.80E-01    0.3     0.00128533      -275.4348284002 -5.12E-03
    19 OT DIIS     0.80E-01    0.3     0.00062398      -275.4427768725 -7.95E-03
    20 OT DIIS     0.80E-01    0.3     0.00044773      -275.4447295812 -1.95E-03

  Leaving inner SCF loop after reaching    20 steps.


  Electronic density on regular grids:       -127.9999999992        0.0000000008
  Core density on regular grids:              128.0000000000       -0.0000000000
  Total charge density on r-space grids:        0.0000000007
  Total charge density g-space grids:           0.0000000007

  Overlap energy of the core charge distribution:               0.00000028107808
  Self energy of the core charge distribution:               -709.55447994780241
  Core Hamiltonian energy:                                    207.18420704170052
  Hartree energy:                                             294.91180621564365
  Exchange-correlation energy:                                -67.98626317186387

  Total energy:                                              -275.44472958124402

  outer SCF iter =    1 RMS gradient =   0.45E-03 energy =       -275.4447295812

  ----------------------------------- OT ---------------------------------------
  Minimizer      : DIIS                : direct inversion
                                         in the iterative subspace
                                         using   7 DIIS vectors
                                         safer DIIS on
  Preconditioner : FULL_SINGLE_INVERSE : inversion of
                                         H + eS - 2*(Sc)(c^T*H*c+const)(Sc)^T
  Precond_solver : DEFAULT
  stepsize       :    0.08000000                  energy_gap     :    0.08000000
  eps_taylor     :   0.10000E-15                  max_taylor     :             4
  ----------------------------------- OT ---------------------------------------

  Step     Update method      Time    Convergence         Total energy    Change
  ------------------------------------------------------------------------------
     1 OT DIIS     0.80E-01    0.5     0.00082255      -275.4456866922 -9.57E-04
     2 OT DIIS     0.80E-01    0.3     0.00052632      -275.4467171526 -1.03E-03
     3 OT DIIS     0.80E-01    0.3     0.00018128      -275.4474362257 -7.19E-04
     4 OT DIIS     0.80E-01    0.3     0.00008202      -275.4475103686 -7.41E-05
     5 OT DIIS     0.80E-01    0.3     0.00004172      -275.4475244908 -1.41E-05
     6 OT DIIS     0.80E-01    0.3     0.00001950      -275.4475289335 -4.44E-06
     7 OT DIIS     0.80E-01    0.3     0.00001028      -275.4475299249 -9.91E-07
     8 OT DIIS     0.80E-01    0.3     0.00000532      -275.4475301953 -2.70E-07

  *** SCF run converged in     8 steps ***


  Electronic density on regular grids:       -127.9999999992        0.0000000008
  Core density on regular grids:              128.0000000000       -0.0000000000
  Total charge density on r-space grids:        0.0000000007
  Total charge density g-space grids:           0.0000000007

  Overlap energy of the core charge distribution:               0.00000028107808
  Self energy of the core charge distribution:               -709.55447994780241
  Core Hamiltonian energy:                                    207.17697107123888
  Hartree energy:                                             294.91694002251592
  Exchange-correlation energy:                                -67.98696162230966

  Total energy:                                              -275.44753019527917

  outer SCF iter =    2 RMS gradient =   0.53E-05 energy =       -275.4475301953
  outer SCF loop converged in   2 iterations or   28 steps


 ENERGY| Total FORCE_EVAL ( QS ) energy [a.u.]:             -275.447530270180891

 ATOMIC FORCES in [a.u.]

 # Atom   Kind   Element          X              Y              Z
      1      1      O          -0.00186975    -0.04793264    -0.00350677
      2      2      H           0.00991255    -0.00147025     0.00210635
      3      2      H          -0.00594337    -0.00755958    -0.00666632
      4      1      O           0.00156718     0.00170886    -0.00617747
      5      2      H           0.00603954     0.00170184     0.01013923
      6      2      H           0.00020921    -0.00462165     0.00198325
      7      1      O          -0.00541251     0.00639165     0.00119377
      8      2      H           0.00004445    -0.00201550    -0.00218065
      9      2      H           0.00101215    -0.00182392    -0.00762357
     10      1      O          -0.00278623    -0.00117824     0.00319159
     11      2      H           0.00717951    -0.00116465     0.00231052
     12      2      H          -0.00057201    -0.00141211     0.00144512
     13      1      O           0.00851679    -0.00069642     0.00704031
     14      2      H          -0.00000153     0.00710519     0.00416912
     15      2      H          -0.00786803    -0.00826731     0.00800776
     16      1      O           0.00124440    -0.00149318     0.00159971
     17      2      H          -0.00761741    -0.00615574    -0.00411228
     18      2      H           0.00212125    -0.00705395    -0.00625981
     19      1      O           0.00052708    -0.00359088    -0.00392559
     20      2      H           0.00950243     0.00407553    -0.00577358
     21      2      H           0.00348581     0.00273732     0.00456070
     22      1      O           0.00248069     0.00031961     0.00674225
     23      2      H           0.00215224    -0.00108490     0.00775245
     24      2      H           0.00009331     0.00808921    -0.00868492
     25      1      O          -0.00092752    -0.00252869    -0.00029119
     26      2      H           0.00358014    -0.00199166    -0.00382909
     27      2      H           0.00216744    -0.00743775    -0.00181523
     28      1      O          -0.00766787     0.04809388     0.00424608
     29      2      H           0.00108891     0.01090218     0.00240986
     30      2      H          -0.00113498     0.01867447    -0.00204741
     31      1      O           0.00210766     0.00293168     0.00268917
     32      2      H          -0.00668782    -0.00363233     0.00440729
     33      2      H          -0.00113522     0.00177709     0.00115860
     34      1      O           0.00141769    -0.01079106    -0.00499184
     35      2      H          -0.00067866     0.00460449    -0.00162986
     36      2      H          -0.00158365     0.00278625    -0.00505781
     37      1      O          -0.00469424    -0.00396748     0.00138154
     38      2      H          -0.00135899     0.00649376    -0.00171380
     39      2      H           0.00507641     0.00026093     0.00111694
     40      1      O           0.00592920    -0.00084254    -0.00006832
     41      2      H          -0.00718942    -0.00433208    -0.00063596
     42      2      H           0.00045143     0.00315589     0.00105485
     43      1      O           0.00257413     0.00026319    -0.00576773
     44      2      H          -0.00630422    -0.00610908    -0.00010572
     45      2      H          -0.00750705     0.00480362     0.00672469
     46      1      O          -0.00587098     0.00505864     0.00213582
     47      2      H           0.00027130    -0.00667282    -0.00657899
     48      2      H           0.00397584     0.00365133     0.00118500
 SUM OF ATOMIC FORCES          -0.00008271    -0.00023983     0.00130806     0.00133243

 -------------------------------------------------------------------------------
 -                                                                             -
 -                                DBCSR STATISTICS                             -
 -                                                                             -
 -------------------------------------------------------------------------------
 COUNTER                                    TOTAL       BLAS       SMM       ACC
 flops     5 x    32 x    32              3932160       0.0%    100.0%      0.0%
 flops    13 x    32 x    32              5111808       0.0%    100.0%      0.0%
 flops     5 x     5 x    32             54067200       0.0%    100.0%      0.0%
 flops    13 x     5 x    32             68157440       0.0%    100.0%      0.0%
 flops     5 x    13 x    32             68157440       0.0%    100.0%      0.0%
 flops    13 x    13 x    32             94142464       0.0%    100.0%      0.0%
 flops    32 x    32 x    32            130547712       0.0%    100.0%      0.0%
 flops     5 x    32 x     5            219545600       0.0%    100.0%      0.0%
 flops    13 x    32 x     5            285409280       0.0%    100.0%      0.0%
 flops     5 x    32 x    13            285409280       0.0%    100.0%      0.0%
 flops    32 x    32 x    46            336134144       0.0%    100.0%      0.0%
 flops    13 x    32 x    13            371032064       0.0%    100.0%      0.0%
 flops    46 x    32 x    32            409993216       0.0%    100.0%      0.0%
 flops    46 x    32 x    46            520028160       0.0%    100.0%      0.0%
 flops inhomo. stacks                           0       0.0%      0.0%      0.0%
 flops total                         2.851668E+09       0.0%    100.0%      0.0%
 flops max/rank                    253.556736E+06       0.0%    100.0%      0.0%
 matmuls inhomo. stacks                         0       0.0%      0.0%      0.0%
 matmuls total                             398328       0.0%    100.0%      0.0%
 number of processed stacks                 64504       0.0%    100.0%      0.0%
 average stack size                                     0.0       6.2       0.0
 marketing flops                     3.132391E+09
 -------------------------------------------------------------------------------
 # multiplications                            632
 max memory usage/rank             255.320064E+06
 # max total images/rank                        1
 # max 3D layers                                1
 # MPI messages exchanged                  566272
 MPI messages size (bytes):
  total size                         1.574164E+09
  min size                           0.000000E+00
  max size                          16.928000E+03
  average size                       2.779874E+03
 MPI breakdown and total messages size (bytes):
             size <=      128              446180                        0
       128 < size <=     8192               17836                146112512
      8192 < size <=    32768              102256               1428051968
     32768 < size <=   131072                   0                        0
    131072 < size <=  4194304                   0                        0
   4194304 < size <= 16777216                   0                        0
  16777216 < size                               0                        0
 -------------------------------------------------------------------------------
 -                                                                             -
 -                      DBCSR MESSAGE PASSING PERFORMANCE                      -
 -                                                                             -
 -------------------------------------------------------------------------------
 ROUTINE             CALLS      AVE VOLUME [Bytes]
 MP_Bcast               15                     12.
 MP_Allreduce         3392                      8.
 MP_Alltoall          2200                   6511.
 MP_ISend            20216                   2714.
 MP_IRecv            20216                   2336.
 -------------------------------------------------------------------------------

 -------------------------------------------------------------------------------
 -                                                                             -
 -                                DBM STATISTICS                               -
 -                                                                             -
 -------------------------------------------------------------------------------
    M  x    N  x    K                                          COUNT     PERCENT
 -------------------------------------------------------------------------------

 -------------------------------------------------------------------------------
 -                                                                             -
 -                                GRID STATISTICS                              -
 -                                                                             -
 -------------------------------------------------------------------------------
 LP    KERNEL             BACKEND                              COUNT     PERCENT
 1     collocate general  REF                                 458896      21.03%
 1     integrate general  REF                                 443072      20.30%
 0     collocate general  REF                                 340835      15.62%
 0     integrate general  REF                                 326116      14.94%
 2     collocate general  REF                                 235219      10.78%
 2     integrate general  REF                                 227108      10.41%
 3     integrate general  REF                                  64867       2.97%
 3     collocate general  REF                                  51939       2.38%
 4     integrate general  REF                                  19968       0.91%
 5     integrate general  REF                                   8111       0.37%
 4     collocate general  REF                                   4292       0.20%
 6     integrate general  REF                                   1791       0.08%
 7     integrate general  REF                                    148       0.01%
 -------------------------------------------------------------------------------

 MEMORY| Estimated peak process memory [MiB]                                 244

 -------------------------------------------------------------------------------
 -                                                                             -
 -                         MESSAGE PASSING PERFORMANCE                         -
 -                                                                             -
 -------------------------------------------------------------------------------

 ROUTINE             CALLS      AVE VOLUME [Bytes]
 MP_Group                4
 MP_Bcast             2032                 288501.
 MP_Allreduce         5652                    237.
 MP_Sync                44
 MP_Alltoall           683                1206884.
 MP_ISendRecv        10962                  42336.
 MP_Wait             15582
 MP_comm_split          20
 MP_ISend             4320                  63272.
 MP_IRecv             4320                  63272.
 MP_Recv                14                  23552.
 -------------------------------------------------------------------------------


 -------------------------------------------------------------------------------
 -                                                                             -
 -                           R E F E R E N C E S                               -
 -                                                                             -
 -------------------------------------------------------------------------------

 CP2K version 2022.1, the CP2K developers group (2022).
 CP2K is freely available from https://www.cp2k.org/ .

 Kuehne,Thomas D.; Iannuzzi,Marcella; Del Ben,Mauro;
 Rybkin,Vladimir V.; Seewald,Patrick; Stein,Frederick; Laino,Teodoro;
 Khaliullin,Rustam Z.; Schuett,Ole; Schiffmann,Florian; Golze,Dorothea;
 Wilhelm,Jan; Chulkov,Sergey; Bani-Hashemian,Mohammad Hossein;
 Weber,Valery; Borstnik,Urban; Taillefumier,Mathieu;
 Jakobovits,Alice Shoshana; Lazzaro,Alfio; Pabst,Hans; Mueller,Tiziano;
 Schade,Robert; Guidon,Manuel; Andermatt,Samuel; Holmberg,Nico;
 Schenter,Gregory K.; Hehn,Anna; Bussy,Augustin; Belleflamme,Fabian;
 Tabacchi,Gloria; Gloess,Andreas; Lass,Michael; Bethune,Iain;
 Mundy,Christopher J.; Plessl,Christian; Watkins,Matt;
 VandeVondele,Joost; Krack,Matthias; Hutter,Juerg.
 The Journal of Chemical Physics, 152 (19), (2020).
 CP2K: An electronic structure and molecular dynamics software package -
 Quickstep: Efficient and accurate electronic structure calculations.
 https://doi.org/10.1063/5.0007045

 Schuett, Ole; Messmer, Peter; Hutter, Juerg; VandeVondele, Joost.
 Electronic Structure Calculations on Graphics Processing Units, John
 Wiley & Sons, Ltd, 173-190 (2016).
 GPU-Accelerated Sparse Matrix-Matrix Multiplication for
 Linear Scaling Density Functional Theory.
 https://doi.org/10.1002/9781118670712.ch8

 Heinecke, A; Henry, G; Hutchinson, M; Pabst, H.
 Proceedings of Intl. Supercomputing Conference, 981-991 (2016).
 LIBXSMM: Accelerating Small Matrix Multiplications
 by Runtime Code Generation.
 https://doi.org/10.1109/SC.2016.83

 Borstnik, U; VandeVondele, J; Weber, V; Hutter, J.
 PARALLEL COMPUTING, 40 (5-6), 47-58 (2014).
 Sparse matrix multiplication: The distributed block-compressed sparse
 row library.
 https://doi.org/10.1016/j.parco.2014.03.012

 Hutter, J; Iannuzzi, M; Schiffmann, F; VandeVondele, J.
 WIREs Comput Mol Sci., 4 (1), 15-25 (2014).
 CP2K: atomistic simulations of condensed matter systems.
 https://doi.org/10.1002/wcms.1159

 VandeVondele, J; Hutter, J.
 JOURNAL OF CHEMICAL PHYSICS, 127 (11), 114105 (2007).
 Gaussian basis sets for accurate calculations on molecular systems in
 gas and condensed phases.
 https://doi.org/10.1063/1.2770708

 Krack, M.
 THEORETICAL CHEMISTRY ACCOUNTS, 114 (1-3), 145-152 (2005).
 Pseudopotentials for H to Kr optimized for gradient-corrected
 exchange-correlation functionals.
 https://doi.org/10.1007/s00214-005-0655-y

 VandeVondele, J; Krack, M; Mohamed, F; Parrinello, M; Chassaing, T;
 Hutter, J. COMPUTER PHYSICS COMMUNICATIONS, 167 (2), 103-128 (2005).
 QUICKSTEP: Fast and accurate density functional calculations using a
 mixed Gaussian and plane waves approach.
 https://doi.org/10.1016/j.cpc.2004.12.014

 Frigo, M; Johnson, SG.
 PROCEEDINGS OF THE IEEE, 93 (2), 216-231 (2005).
 The design and implementation of FFTW3.
 https://doi.org/10.1109/JPROC.2004.840301

 VandeVondele, J; Hutter, J.
 JOURNAL OF CHEMICAL PHYSICS, 118 (10), 4365-4369 (2003).
 An efficient orbital transformation method for electronic structure
 calculations.
 https://doi.org/10.1063/1.1543154

 Hartwigsen, C; Goedecker, S; Hutter, J.
 PHYSICAL REVIEW B, 58 (7), 3641-3662 (1998).
 Relativistic separable dual-space Gaussian pseudopotentials from H to Rn.
 https://doi.org/10.1103/PhysRevB.58.3641

 Lippert, G; Hutter, J; Parrinello, M.
 MOLECULAR PHYSICS, 92 (3), 477-487 (1997).
 A hybrid Gaussian and plane wave density functional scheme.
 https://doi.org/10.1080/002689797170220

 Perdew, JP; Burke, K; Ernzerhof, M.
 PHYSICAL REVIEW LETTERS, 77 (18), 3865-3868 (1996).
 Generalized gradient approximation made simple.
 https://doi.org/10.1103/PhysRevLett.77.3865

 Goedecker, S; Teter, M; Hutter, J.
 PHYSICAL REVIEW B, 54 (3), 1703-1710 (1996).
 Separable dual-space Gaussian pseudopotentials.
 https://doi.org/10.1103/PhysRevB.54.1703


 -------------------------------------------------------------------------------
 -                                                                             -
 -                                T I M I N G                                  -
 -                                                                             -
 -------------------------------------------------------------------------------
 SUBROUTINE                       CALLS  ASD         SELF TIME        TOTAL TIME
                                MAXIMUM       AVERAGE  MAXIMUM  AVERAGE  MAXIMUM
 CP2K                                 1  1.0    0.013    0.016    7.840    7.841
 qs_forces                            1  2.0    0.001    0.001    7.746    7.746
 qs_energies                          1  3.0    0.001    0.001    7.506    7.506
 scf_env_do_scf                       1  4.0    0.000    0.000    7.364    7.364
 scf_env_do_scf_inner_loop           28  5.0    0.001    0.002    6.959    6.961
 rebuild_ks_matrix                   29  6.9    0.000    0.001    4.941    4.943
 qs_ks_build_kohn_sham_matrix        29  7.9    0.005    0.007    4.941    4.943
 qs_ks_update_qs_env                 30  6.0    0.000    0.001    4.713    4.714
 pw_transfer                        552 11.1    0.027    0.032    2.466    2.768
 fft_wrap_pw1pw2                    494 12.2    0.005    0.006    2.420    2.721
 fft_wrap_pw1pw2_400                320 13.6    0.119    0.133    2.292    2.562
 qs_vxc_create                       29  8.9    0.001    0.001    2.491    2.542
 xc_vxc_pw_create                    29  9.9    0.013    0.018    2.490    2.540
 fft3d_ps                           494 14.2    0.524    0.547    2.100    2.462
 sum_up_and_integrate                29  8.9    0.007    0.007    2.121    2.146
 integrate_v_rspace                  29  9.9    0.001    0.002    2.114    2.139
 qs_rho_update_rho_low               29  6.0    0.000    0.000    2.138    2.139
 calculate_rho_elec                  29  7.0    0.005    0.005    2.138    2.139
 xc_pw_derive                       174 11.9    0.001    0.002    1.711    2.018
 mp_alltoall_z22v                   494 16.2    1.445    2.014    1.445    2.014
 rs_pw_transfer                     234 10.4    0.003    0.004    1.627    1.725
 xc_pw_divergence                    29 10.9    0.001    0.001    1.305    1.566
 yz_to_x                            175 15.4    0.042    0.055    1.068    1.439
 xc_rho_set_and_dset_create          29 10.9    0.022    0.026    1.115    1.226
 density_rs2pw                       29  8.0    0.002    0.002    1.106    1.206
 grid_collocate_task_list            29  8.0    1.013    1.147    1.013    1.147
 potential_pw2rs                     29 10.9    0.001    0.002    1.090    1.093
 grid_integrate_task_list            29 10.9    0.950    1.025    0.950    1.025
 x_to_yz                            203 15.5    0.035    0.041    0.449    0.618
 rs_pw_transfer_PW2RS_400            30 12.7    0.326    0.354    0.602    0.616
 rs_pw_transfer_RS2PW_400            30  9.9    0.181    0.248    0.445    0.549
 mp_waitany                        4320 12.3    0.385    0.528    0.385    0.528
 xc_functional_eval                  29 11.9    0.000    0.001    0.479    0.514
 pbe_lda_eval                        29 12.9    0.479    0.514    0.479    0.514
 qs_scf_new_mos                      28  6.0    0.000    0.000    0.513    0.514
 qs_scf_loop_do_ot                   28  7.0    0.000    0.000    0.512    0.514
 dbcsr_multiply_generic             632 11.0    0.014    0.016    0.456    0.511
 ot_scf_mini                         28  8.0    0.000    0.000    0.492    0.493
 mp_waitall_1                     61822 14.7    0.349    0.415    0.349    0.415
 init_scf_loop                        2  5.0    0.000    0.001    0.404    0.404
 ot_mini                             28  9.0    0.000    0.001    0.279    0.281
 rs_pw_transfer_RS2PW_140            29 10.0    0.122    0.131    0.243    0.256
 qs_ot_get_derivative                28 10.0    0.000    0.000    0.245    0.246
 rs_pw_transfer_PW2RS_140            29 12.9    0.120    0.132    0.231    0.241
 qs_ks_update_qs_env_forces           1  3.0    0.000    0.000    0.231    0.231
 multiply_cannon                    632 12.0    0.028    0.029    0.183    0.200
 mp_sum_d                          1799  9.5    0.087    0.175    0.087    0.175
 mp_alltoall_d11v                   491 12.8    0.077    0.175    0.077    0.175
 rs_gather_matrices                  29 10.9    0.001    0.001    0.073    0.170
 qs_ot_get_p                         30  8.9    0.000    0.000    0.159    0.161
 -------------------------------------------------------------------------------

 The number of warnings for this run is : 0

 -------------------------------------------------------------------------------
  **** **** ******  **  PROGRAM ENDED AT                 2023-12-06 09:50:01.352
 ***** ** ***  *** **   PROGRAM RAN ON                     b5201.betzy.sigma2.no
 **    ****   ******    PROGRAM RAN BY                                  sigbjobo
 ***** **    ** ** **   PROGRAM PROCESS ID                                108315
  **** **  *******  **  PROGRAM STOPPED IN /cluster/work/users/sigbjobo/ice_mode
                                           l/cp2k/iter_1/calculator/ice_ih/77079
                                           9
