&GLOBAL
  PRINT_LEVEL LOW
  PROJECT 2ed2bf034619f80d0d26730652792d7cff5a1acd
  RUN_TYPE ENERGY_FORCE
&END GLOBAL
&FORCE_EVAL
  METHOD Quickstep
  STRESS_TENSOR ANALYTICAL
  &PRINT
    &FORCES ON
    &END FORCES
  &END PRINT
  &SUBSYS
    &CELL
            A     7.783488750     0.000000000     0.000000000
      B     0.577259541     7.056059361     0.000000000
      C     0.014603489     0.000000028     8.741450310

    &END CELL
    &COORD
            O    5.128210068     5.559676647     7.758404255
      H    5.152117729     5.173200130     6.845437050
      H    5.764533997     4.998287678     8.324021339
      O    1.303322673     1.321812630     5.556283474
      H    1.887816310     0.908116639     6.227933407
      H    0.274598151     1.271932125     5.729629993
      O    2.821895123     1.815135360     7.979966164
      H    2.524161816     2.604394913     7.472166061
      H    2.187709808     1.065165281     8.109655380
      O    1.868878245     0.491695702     1.366843224
      H    1.206671238     1.112996221     1.011572123
      H    2.138971090     0.956243515     2.255949736
      O    5.784382820     4.278337955     0.992864072
      H    6.166554928     3.368252993     0.865581155
      H    6.416209221     4.899534225     1.439573050
      O    6.723955631     1.483759403     0.438549489
      H    6.893236160     1.639058948     1.389906287
      H    5.771663666     1.183441281     0.384163409
      O    1.159654379     4.996634007     5.442589283
      H    1.006729484     5.814490795     5.963203430
      H    1.690779090     5.116694927     4.585952759
      O    1.185851574     5.251207352     1.058233857
      H    1.759098053     4.950060368     0.261035830
      H    1.534357429     6.199390888     1.096183419
      O    5.197008610     1.243012905     3.379847288
      H    5.238001347     0.238683015     3.274242163
      H    4.200048447     1.314195037     3.524718285
      O    4.950700760     0.814756036     7.283008575
      H    4.076848030     1.293980837     7.457236290
      H    5.368580341     6.877573490     7.515024662
      O    6.605721951     1.403428912     5.635869503
      H    5.892244816     1.129206419     6.359004021
      H    6.070867538     1.386570930     4.772330284
      O    6.260429859     4.502023220     5.507389545
      H    6.625455856     3.591758013     5.683752537
      H    7.148831367     4.948204994     5.381757736
      O    2.718818426     5.049386978     7.813124657
      H    3.673543453     5.358851910     8.021668434
      H    2.506320715     5.029932022     6.846050262
      O    2.578258753     4.645267963     3.213339329
      H    2.077052116     4.921014309     2.351461172
      H    3.452952385     4.324288368     2.915124178
      O    2.601019859     1.668665648     3.465973854
      H    2.664487362     2.649026394     3.329088688
      H    2.017932177     1.519582272     4.326221466
      O    5.389570713     5.784904957     3.185305595
      H    5.607490540     5.099229813     3.873213053
      H    4.772512913     5.502062321     2.474711657
      UNIT ANGSTROM
    &END COORD
    &KIND H
      POTENTIAL GTH-PBE
      ELEMENT H
      BASIS_SET DZVP-GTH-PBE
    &END KIND
    &KIND O
      POTENTIAL GTH-PBE
      ELEMENT O
      BASIS_SET DZVP-GTH-PBE
    &END KIND
  &END SUBSYS
  &DFT
    POTENTIAL_FILE_NAME GTH_POTENTIALS
    MULTIPLICITY 0
    CHARGE 0
    BASIS_SET_FILE_NAME BASIS_SET
    BASIS_SET_FILE_NAME BASIS_MOLOPT
    BASIS_SET_FILE_NAME BASIS_MOLOPT_UCL
    &MGRID
      REL_CUTOFF 60
      CUTOFF 800
    &END MGRID
    &QS
      EPS_DEFAULT 1e-12
    &END QS
    &XC
      &XC_FUNCTIONAL PBE
      &END XC_FUNCTIONAL
      &XC_GRID
        XC_DERIV PW
      &END XC_GRID
    &END XC
    &SCF
      EPS_SCF 1e-05
      MAX_SCF 20
      SCF_GUESS ATOMIC
      &OUTER_SCF
        EPS_SCF 1e-05
        MAX_SCF 100
      &END OUTER_SCF
      &OT
        PRECONDITIONER FULL_SINGLE_INVERSE
        MINIMIZER DIIS
      &END OT
    &END SCF
  &END DFT
&END FORCE_EVAL