&GLOBAL
  PRINT_LEVEL LOW
  PROJECT 6be80abd1b9f31b8dcc986497abdc84414b69d61
  RUN_TYPE ENERGY_FORCE
&END GLOBAL
&FORCE_EVAL
  METHOD Quickstep
  STRESS_TENSOR ANALYTICAL
  &PRINT
    &FORCES ON
    &END FORCES
  &END PRINT
  &SUBSYS
    &CELL
            A     7.395893097     0.000000000     0.000000000
      B     0.096011542     7.265579224     0.000000000
      C     0.523884058     0.206524298     8.983476639

    &END CELL
    &COORD
            O    4.962192059     4.707906723     7.600109577
      H    5.239123344     5.020628452     6.707153797
      H    4.888535500     5.431001186     8.268705368
      O    1.825276256     0.794835091     5.553736210
      H    1.714215159     1.002992630     6.545336723
      H    1.031654954     1.210583806     5.143065453
      O    1.907033086     1.332003117     7.953099251
      H    2.614989281     1.964542389     7.764225960
      H    2.015210152     1.030674815     8.963276863
      O    1.196917415     0.586855114     1.284400940
      H    0.427598029     1.224696279     1.207001209
      H    1.758752823     1.136559367     2.170764685
      O    6.313050747     4.887901306     1.099320889
      H    6.642702103     3.958138466     1.194835186
      H    7.205325127     5.337056160     1.223523855
      O    6.545857906     2.180104256     1.673751473
      H    6.579484940     1.444980145     2.332576513
      H    5.978170395     1.874346495     0.939473391
      O    1.987817526     5.548770428     5.192893982
      H    1.319437742     6.166393280     5.568483829
      H    1.693793535     4.776298523     4.632663250
      O    1.487748742     5.417602062     1.464732170
      H    1.814306378     5.144477844     0.567300081
      H    1.446515203     6.449626923     1.425352216
      O    4.759397507     0.633551419     3.608919144
      H    4.479114532     7.078534603     3.179566860
      H    4.886153221     1.359740019     2.958372593
      O    5.344740868     0.735025108     7.351171970
      H    4.468479633     0.934158921     7.735386848
      H    5.463162422     7.022619247     7.386661053
      O    6.488139153     1.939229727     5.280808926
      H    6.198733330     1.484663606     6.123085022
      H    5.673804283     1.730688810     4.753008842
      O    6.701702595     4.458186626     4.649235249
      H    6.955385685     3.610101700     5.126558781
      H    7.218874931     5.276155949     4.815037251
      O    2.314600706     5.031481266     7.670767784
      H    3.237514257     4.665086269     7.646439552
      H    2.263308764     5.203040600     6.657765865
      O    2.599000454     4.053648949     3.197435141
      H    2.066875696     4.629456043     2.533873081
      H    3.674310207     4.459049702     3.153371811
      O    2.007005692     1.788481712     3.131918669
      H    2.276643038     2.882019758     3.059315443
      H    2.650744915     1.436632276     3.800484419
      O    4.787607670     5.017683029     3.187855959
      H    5.399994850     4.714939117     3.954895258
      H    5.413888454     4.870756626     2.378674746
      UNIT ANGSTROM
    &END COORD
    &KIND H
      POTENTIAL GTH-PBE
      ELEMENT H
      BASIS_SET DZVP-GTH-PBE
    &END KIND
    &KIND O
      POTENTIAL GTH-PBE
      ELEMENT O
      BASIS_SET DZVP-GTH-PBE
    &END KIND
  &END SUBSYS
  &DFT
    POTENTIAL_FILE_NAME GTH_POTENTIALS
    MULTIPLICITY 0
    CHARGE 0
    BASIS_SET_FILE_NAME BASIS_SET
    BASIS_SET_FILE_NAME BASIS_MOLOPT
    BASIS_SET_FILE_NAME BASIS_MOLOPT_UCL
    &MGRID
      REL_CUTOFF 60
      CUTOFF 800
    &END MGRID
    &QS
      EPS_DEFAULT 1e-12
    &END QS
    &XC
      &XC_FUNCTIONAL PBE
      &END XC_FUNCTIONAL
      &XC_GRID
        XC_DERIV PW
      &END XC_GRID
    &END XC
    &SCF
      EPS_SCF 1e-05
      MAX_SCF 20
      SCF_GUESS ATOMIC
      &OUTER_SCF
        EPS_SCF 1e-05
        MAX_SCF 100
      &END OUTER_SCF
      &OT
        PRECONDITIONER FULL_SINGLE_INVERSE
        MINIMIZER DIIS
      &END OT
    &END SCF
  &END DFT
&END FORCE_EVAL